{
  "images" : [
    {
      "idiom" : "universal",
      "filename" : "push-pin-wine-ip4.png",
      "scale" : "1x"
    },
    {
      "idiom" : "universal",
      "filename" : "push-pin-wine-ip5.png",
      "scale" : "2x"
    },
    {
      "idiom" : "universal",
      "filename" : "push-pin-wine-ip6+.png",
      "scale" : "3x"
    }
  ],
  "info" : {
    "version" : 1,
    "author" : "xcode"
  }
}